{
  "timestamp": "2025-10-31T08:57:40.193Z",
  "local": {
    "url": "http://localhost:1337",
    "data": null,
    "available": false
  },
  "cloud": {
    "url": "https://fruitful-presence-02d7be759c.strapiapp.com",
    "data": {
      "data": [
        {
          "id": 275,
          "documentId": "bqv75vakahrpmsoghhcl8z9t",
          "title": "Shenzhen China Southern Power Grid Shenzhen-Hong Kong Technology Innovation Co., Ltd. Leadership Visits Yanghuasti for Exchange",
          "description": "Shenzhen China Southern Power Grid Shenzhen-Hong Kong Technology Innovation Co.,",
          "slug": "shenzhen-china-southern-power-grid-shenzhen-hong-kong-technology-innovation-co-ltd-leadership-visits-yanghuasti-for-exchange",
          "createdAt": "2025-09-22T02:10:24.860Z",
          "updatedAt": "2025-09-22T02:10:24.860Z",
          "publishedAt": "2025-09-22T02:10:24.957Z",
          "locale": "en",
          "cover": {
            "id": 1376,
            "documentId": "mdb22i7h3jfbmhmural9xmwo",
            "name": "cover_IMG_7410.JPG_%E5%89%AF%E6%9C%AC.jpg",
            "alternativeText": null,
            "caption": null,
            "width": 600,
            "height": 400,
            "formats": {
              "small": {
                "ext": ".jpg",
                "url": "https://fruitful-presence-02d7be759c.media.strapiapp.com/small_cover_IMG_7410_JPG_E5_89_AF_E6_9_C_AC_9bb076c426.jpg",
                "hash": "small_cover_IMG_7410_JPG_E5_89_AF_E6_9_C_AC_9bb076c426",
                "mime": "image/jpeg",
                "name": "small_cover_IMG_7410.JPG_%E5%89%AF%E6%9C%AC.jpg",
                "path": null,
                "size": 33.98,
                "width": 500,
                "height": 333,
                "sizeInBytes": 33980
              },
              "thumbnail": {
                "ext": ".jpg",
                "url": "https://fruitful-presence-02d7be759c.media.strapiapp.com/thumbnail_cover_IMG_7410_JPG_E5_89_AF_E6_9_C_AC_9bb076c426.jpg",
                "hash": "thumbnail_cover_IMG_7410_JPG_E5_89_AF_E6_9_C_AC_9bb076c426",
                "mime": "image/jpeg",
                "name": "thumbnail_cover_IMG_7410.JPG_%E5%89%AF%E6%9C%AC.jpg",
                "path": null,
                "size": 9.19,
                "width": 234,
                "height": 156,
                "sizeInBytes": 9188
              }
            },
            "hash": "cover_IMG_7410_JPG_E5_89_AF_E6_9_C_AC_9bb076c426",
            "ext": ".jpg",
            "mime": "image/jpeg",
            "size": 48.41,
            "url": "https://fruitful-presence-02d7be759c.media.strapiapp.com/cover_IMG_7410_JPG_E5_89_AF_E6_9_C_AC_9bb076c426.jpg",
            "previewUrl": null,
            "provider": "strapi-provider-upload-strapi-cloud",
            "provider_metadata": null,
            "createdAt": "2025-09-22T02:10:14.780Z",
            "updatedAt": "2025-09-22T02:10:14.780Z",
            "publishedAt": "2025-09-22T02:10:14.780Z"
          },
          "author": {
            "id": 1,
            "documentId": "ft7eaptzt6yg20np43o8zx4j",
            "name": "David Doe",
            "email": "daviddoe@strapi.io",
            "createdAt": "2025-09-10T10:19:35.416Z",
            "updatedAt": "2025-09-10T10:19:35.416Z",
            "publishedAt": "2025-09-10T10:19:35.415Z"
          },
          "category": {
            "id": 5,
            "documentId": "yhv7ak924vp95v0cnkkp7d9b",
            "name": "story",
            "slug": "story",
            "description": null,
            "createdAt": "2025-09-10T10:19:35.249Z",
            "updatedAt": "2025-09-10T10:19:35.249Z",
            "publishedAt": "2025-09-10T10:19:35.249Z"
          },
          "blocks": [
            {
              "__component": "shared.rich-text",
              "id": 1613,
              "body": "**Shenzhen Southern Power Grid Shenzhen-Hong Kong Technology Innovation Co., Ltd. Leadership Team Visits Yanghua Technology for Investigation and Exchange**"
            },
            {
              "__component": "shared.media",
              "id": 1238
            },
            {
              "__component": "shared.media",
              "id": 1239
            },
            {
              "__component": "shared.media",
              "id": 1240
            },
            {
              "__component": "shared.media",
              "id": 1241
            },
            {
              "__component": "shared.media",
              "id": 1242
            },
            {
              "__component": "shared.media",
              "id": 1243
            },
            {
              "__component": "shared.quote",
              "id": 258,
              "title": "Yanghuasti Technology",
              "body": "Focused on High Current Flexible Busbar Innovation, Providing Safe and Efficient Solutions for Power Transmission"
            }
          ],
          "localizations": []
        },
        {
          "id": 277,
          "documentId": "aqfv7zft3ifgvg2p9c043ieb",
          "title": "Yanghuasti 2024 Annual Review",
          "description": "Yanghuasti 2024 Annual Review - Yanghuasti Technology News",
          "slug": "yanghuasti-2024-annual-review",
          "createdAt": "2025-09-22T02:10:31.774Z",
          "updatedAt": "2025-09-22T02:10:31.774Z",
          "publishedAt": "2025-09-22T02:10:31.815Z",
          "locale": "en",
          "cover": {
            "id": 1383,
            "documentId": "lfrxyxrgt1anfg3dkyd277nt",
            "name": "cover_20250205%E5%AE%98%E6%96%B9%E5%8F%B7%EF%BC%881%EF%BC%89-%E5%B0%81%E9%9D%A2.jpg",
            "alternativeText": null,
            "caption": null,
            "width": 1920,
            "height": 1080,
            "formats": {
              "large": {
                "ext": ".jpg",
                "url": "https://fruitful-presence-02d7be759c.media.strapiapp.com/large_cover_20250205_E5_AE_98_E6_96_B9_E5_8_F_B7_EF_BC_881_EF_BC_89_E5_B0_81_E9_9_D_A2_8a1a2552fa.jpg",
                "hash": "large_cover_20250205_E5_AE_98_E6_96_B9_E5_8_F_B7_EF_BC_881_EF_BC_89_E5_B0_81_E9_9_D_A2_8a1a2552fa",
                "mime": "image/jpeg",
                "name": "large_cover_20250205%E5%AE%98%E6%96%B9%E5%8F%B7%EF%BC%881%EF%BC%89-%E5%B0%81%E9%9D%A2.jpg",
                "path": null,
                "size": 68.88,
                "width": 1000,
                "height": 563,
                "sizeInBytes": 68880
              },
              "small": {
                "ext": ".jpg",
                "url": "https://fruitful-presence-02d7be759c.media.strapiapp.com/small_cover_20250205_E5_AE_98_E6_96_B9_E5_8_F_B7_EF_BC_881_EF_BC_89_E5_B0_81_E9_9_D_A2_8a1a2552fa.jpg",
                "hash": "small_cover_20250205_E5_AE_98_E6_96_B9_E5_8_F_B7_EF_BC_881_EF_BC_89_E5_B0_81_E9_9_D_A2_8a1a2552fa",
                "mime": "image/jpeg",
                "name": "small_cover_20250205%E5%AE%98%E6%96%B9%E5%8F%B7%EF%BC%881%EF%BC%89-%E5%B0%81%E9%9D%A2.jpg",
                "path": null,
                "size": 22.14,
                "width": 500,
                "height": 281,
                "sizeInBytes": 22144
              },
              "medium": {
                "ext": ".jpg",
                "url": "https://fruitful-presence-02d7be759c.media.strapiapp.com/medium_cover_20250205_E5_AE_98_E6_96_B9_E5_8_F_B7_EF_BC_881_EF_BC_89_E5_B0_81_E9_9_D_A2_8a1a2552fa.jpg",
                "hash": "medium_cover_20250205_E5_AE_98_E6_96_B9_E5_8_F_B7_EF_BC_881_EF_BC_89_E5_B0_81_E9_9_D_A2_8a1a2552fa",
                "mime": "image/jpeg",
                "name": "medium_cover_20250205%E5%AE%98%E6%96%B9%E5%8F%B7%EF%BC%881%EF%BC%89-%E5%B0%81%E9%9D%A2.jpg",
                "path": null,
                "size": 42.84,
                "width": 750,
                "height": 422,
                "sizeInBytes": 42839
              },
              "thumbnail": {
                "ext": ".jpg",
                "url": "https://fruitful-presence-02d7be759c.media.strapiapp.com/thumbnail_cover_20250205_E5_AE_98_E6_96_B9_E5_8_F_B7_EF_BC_881_EF_BC_89_E5_B0_81_E9_9_D_A2_8a1a2552fa.jpg",
                "hash": "thumbnail_cover_20250205_E5_AE_98_E6_96_B9_E5_8_F_B7_EF_BC_881_EF_BC_89_E5_B0_81_E9_9_D_A2_8a1a2552fa",
                "mime": "image/jpeg",
                "name": "thumbnail_cover_20250205%E5%AE%98%E6%96%B9%E5%8F%B7%EF%BC%881%EF%BC%89-%E5%B0%81%E9%9D%A2.jpg",
                "path": null,
                "size": 6.8,
                "width": 245,
                "height": 138,
                "sizeInBytes": 6800
              }
            },
            "hash": "cover_20250205_E5_AE_98_E6_96_B9_E5_8_F_B7_EF_BC_881_EF_BC_89_E5_B0_81_E9_9_D_A2_8a1a2552fa",
            "ext": ".jpg",
            "mime": "image/jpeg",
            "size": 185.39,
            "url": "https://fruitful-presence-02d7be759c.media.strapiapp.com/cover_20250205_E5_AE_98_E6_96_B9_E5_8_F_B7_EF_BC_881_EF_BC_89_E5_B0_81_E9_9_D_A2_8a1a2552fa.jpg",
            "previewUrl": null,
            "provider": "strapi-provider-upload-strapi-cloud",
            "provider_metadata": null,
            "createdAt": "2025-09-22T02:10:27.597Z",
            "updatedAt": "2025-09-22T02:10:27.597Z",
            "publishedAt": "2025-09-22T02:10:27.597Z"
          },
          "author": {
            "id": 1,
            "documentId": "ft7eaptzt6yg20np43o8zx4j",
            "name": "David Doe",
            "email": "daviddoe@strapi.io",
            "createdAt": "2025-09-10T10:19:35.416Z",
            "updatedAt": "2025-09-10T10:19:35.416Z",
            "publishedAt": "2025-09-10T10:19:35.415Z"
          },
          "category": {
            "id": 4,
            "documentId": "lb3zt96hts50bbs94xplf00z",
            "name": "nature",
            "slug": "nature",
            "description": null,
            "createdAt": "2025-09-10T10:19:35.248Z",
            "updatedAt": "2025-09-10T10:19:35.248Z",
            "publishedAt": "2025-09-10T10:19:35.247Z"
          },
          "blocks": [
            {
              "__component": "shared.rich-text",
              "id": 1615,
              "body": "**Work Begins Auspiciously, All Things Can Be Expected**"
            },
            {
              "__component": "shared.media",
              "id": 1245
            },
            {
              "__component": "shared.quote",
              "id": 260,
              "title": "Yanghuasti Technology",
              "body": "Focused on High Current Flexible Busbar Innovation, Providing Safe and Efficient Solutions for Power Transmission"
            }
          ],
          "localizations": []
        },
        {
          "id": 279,
          "documentId": "fs9i5qh79vcuw1jq0f7s0q46",
          "title": "Work Resumes with Good Fortune, Everything is Promising",
          "description": "Work Resumes with Good Fortune, Everything is Promising - Yanghuasti Technology ",
          "slug": "work-resumes-with-good-fortune-everything-is-promising",
          "createdAt": "2025-09-22T02:10:36.933Z",
          "updatedAt": "2025-09-22T02:10:36.933Z",
          "publishedAt": "2025-09-22T02:10:36.960Z",
          "locale": "en",
          "cover": {
            "id": 1385,
            "documentId": "dq4ojcxbvg1pziewe2u012tw",
            "name": "cover_%E5%BC%80%E5%B7%A5%E6%B5%B7%E6%8A%A5_%E5%89%AF%E6%9C%AC%E5%B0%81%E9%9D%A2.jpg",
            "alternativeText": null,
            "caption": null,
            "width": 600,
            "height": 400,
            "formats": {
              "small": {
                "ext": ".jpg",
                "url": "https://fruitful-presence-02d7be759c.media.strapiapp.com/small_cover_E5_BC_80_E5_B7_A5_E6_B5_B7_E6_8_A_A5_E5_89_AF_E6_9_C_AC_E5_B0_81_E9_9_D_A2_3e7cb43d30.jpg",
                "hash": "small_cover_E5_BC_80_E5_B7_A5_E6_B5_B7_E6_8_A_A5_E5_89_AF_E6_9_C_AC_E5_B0_81_E9_9_D_A2_3e7cb43d30",
                "mime": "image/jpeg",
                "name": "small_cover_%E5%BC%80%E5%B7%A5%E6%B5%B7%E6%8A%A5_%E5%89%AF%E6%9C%AC%E5%B0%81%E9%9D%A2.jpg",
                "path": null,
                "size": 22.12,
                "width": 500,
                "height": 333,
                "sizeInBytes": 22117
              },
              "thumbnail": {
                "ext": ".jpg",
                "url": "https://fruitful-presence-02d7be759c.media.strapiapp.com/thumbnail_cover_E5_BC_80_E5_B7_A5_E6_B5_B7_E6_8_A_A5_E5_89_AF_E6_9_C_AC_E5_B0_81_E9_9_D_A2_3e7cb43d30.jpg",
                "hash": "thumbnail_cover_E5_BC_80_E5_B7_A5_E6_B5_B7_E6_8_A_A5_E5_89_AF_E6_9_C_AC_E5_B0_81_E9_9_D_A2_3e7cb43d30",
                "mime": "image/jpeg",
                "name": "thumbnail_cover_%E5%BC%80%E5%B7%A5%E6%B5%B7%E6%8A%A5_%E5%89%AF%E6%9C%AC%E5%B0%81%E9%9D%A2.jpg",
                "path": null,
                "size": 6.51,
                "width": 234,
                "height": 156,
                "sizeInBytes": 6511
              }
            },
            "hash": "cover_E5_BC_80_E5_B7_A5_E6_B5_B7_E6_8_A_A5_E5_89_AF_E6_9_C_AC_E5_B0_81_E9_9_D_A2_3e7cb43d30",
            "ext": ".jpg",
            "mime": "image/jpeg",
            "size": 31.16,
            "url": "https://fruitful-presence-02d7be759c.media.strapiapp.com/cover_E5_BC_80_E5_B7_A5_E6_B5_B7_E6_8_A_A5_E5_89_AF_E6_9_C_AC_E5_B0_81_E9_9_D_A2_3e7cb43d30.jpg",
            "previewUrl": null,
            "provider": "strapi-provider-upload-strapi-cloud",
            "provider_metadata": null,
            "createdAt": "2025-09-22T02:10:33.178Z",
            "updatedAt": "2025-09-22T02:10:33.178Z",
            "publishedAt": "2025-09-22T02:10:33.178Z"
          },
          "author": {
            "id": 1,
            "documentId": "ft7eaptzt6yg20np43o8zx4j",
            "name": "David Doe",
            "email": "daviddoe@strapi.io",
            "createdAt": "2025-09-10T10:19:35.416Z",
            "updatedAt": "2025-09-10T10:19:35.416Z",
            "publishedAt": "2025-09-10T10:19:35.415Z"
          },
          "category": {
            "id": 4,
            "documentId": "lb3zt96hts50bbs94xplf00z",
            "name": "nature",
            "slug": "nature",
            "description": null,
            "createdAt": "2025-09-10T10:19:35.248Z",
            "updatedAt": "2025-09-10T10:19:35.248Z",
            "publishedAt": "2025-09-10T10:19:35.247Z"
          },
          "blocks": [
            {
              "__component": "shared.rich-text",
              "id": 1617,
              "body": "**Work Begins Auspiciously, All Things Can Be Expected**"
            },
            {
              "__component": "shared.media",
              "id": 1247
            },
            {
              "__component": "shared.quote",
              "id": 262,
              "title": "Yanghuasti Technology",
              "body": "Focused on High Current Flexible Busbar Innovation, Providing Safe and Efficient Solutions for Power Transmission"
            }
          ],
          "localizations": []
        }
      ],
      "meta": {
        "pagination": {
          "page": 1,
          "pageSize": 3,
          "pageCount": 8,
          "total": 24
        }
      }
    },
    "available": true
  }
}